Sijan - R You Ready? An I/O Psychologist’s Guide to R & Rstudio
…
This calculates the average (Mean) and standard deviation (SD) of the MonthlyIncome column for the filtered subset.

Subsetting Columns

Selecting specific columns is often necessary to focus on relevant data or remove unnecessary variables. You can use the select() function from the tidyverse to keep only the desired columns:

# Keep specific columns
df %>%
  select(Attrition, DailyRate, Department, Education)

# A tibble: 23,532 × 4
   Attrition        DailyRate Department             Education
   <chr>                <dbl> <chr>                      <dbl>
 1 Current employee       370 Research & Development         4
 2 Current employee       370 Research & Development         4
 3 Current employee       370 Research & Development         4
 4 Current employee       370 Research & Development         4
 5 Current employee       370 Research & Development         4
 6 Current employee       370 Research & Development         4
 7 Current employee       370 Research & Development         4
 8 Current employee       370 Research & Development         4
 9 Current employee       370 Research & Development         4
10 Current employee       370 Research & Development         4
# ℹ 23,522 more rows
…
